﻿[{"identifier":".navbar-brand",
"content":"Quick Jump"},

{"identifier":"span.sr-only",
"content":"Toggle Navigation"},

{"identifier":"a[href=#top]",
"content":"Top"},

{"identifier":"a[href=#stats]",
"content":"Stats"},

{"identifier":"a[href=#damage]",
"content":"Damage"},

{"identifier":"a[href=#enemy]",
"content":"Enemy"},

{"identifier":"a[href=#results]",
"content":"Results"},

{"identifier":"#about-link",
"content":"About"},

{"identifier":"#error-link",
"content":"Errors"},

{"identifier":"#trans-en",
"content":"EN"},

{"identifier":"#trans-jp",
"content":"\u65E5\u672C\u8A9E"},

{"identifier":"#tid-span",
"content":"Team ID"},

{"identifier":"input[name=team-id]",
"content":"",
"attr":"placeholder",
"attr_content":"Press Enter to get your team!"},

{"identifier":"#level-row td:first-child b",
"content":"Level"},

{"identifier":"#type-row td:first-child b",
"content":"Type"},

{"identifier":"#lead-row td:first-child b span",
"content":"Multipliers",
"attr":"title",
"attr_content":"Combo multipliers assumed to be max."},

{"identifier":"#hp-row td:first-child b",
"content":"HP"},

{"identifier":"#atk-row td:first-child b",
"content":"ATK"},

{"identifier":"#rcv-row td:first-child b",
"content":"RCV"},

{"identifier":"#dmg-form legend",
"content":"Damage Calculation"},

{"identifier":"input[name=orbs]",
"content":"",
"attr":"placeholder",
"attr_content":"# of Orbs"},

{"identifier":"input[name=porb]",
"content":"",
"attr":"placeholder",
"attr_content":"# of +Orbs"},

{"identifier":"p.orbs-with",
"content":"Orbs with"},

{"identifier":".check-row",
"content":"Rows?"},

{"identifier":"select optgroup[label=\u4E3B\u5C5E\u6027]",
"content":"",
"attr":"label",
"attr_content":"Element"},

{"identifier":"select optgroup[label=\u30BF\u30A4\u30D7]",
"content":"",
"attr":"label",
"attr_content":"Type"},

{"identifier":"#combo-label",
"content":"Combos"},

{"identifier":"#porb-label",
"content":"Enhance Orbs"},

{"identifier":"#active-label",
"content":"Active Skill"},

{"identifier":"#enemy-label",
"content":"Enemy Stats"},

{"identifier":"#enemy-health",
"content":"",
"attr":"placeholder",
"attr_content":"HP"},

{"identifier":"#enemy-def",
"content":"",
"attr":"placeholder",
"attr_content":"Defense"},

{"identifier":"#dmg-submit",
"content":"Calculate!"},

{"identifier":"#tdam-label",
"content":"Total Damage:"},

{"identifier":"#calc-after",
"content":"Remaining: "},

{"identifier":"#results-block label",
"content":"Results"},

{"identifier":"#about-title",
"content":"About PadSpike!"},

{"identifier":"#about-what",
"content":"What is it?"},

{"identifier":"#about-what-body",
"content":"PadSpike! is a damage calculator for Puzzle and Dragons that tries to give more precise numbers for a given board setup versus an enemy. Specifically, it tries to answer the age-old question: 'Can I spike (read: burst) this Descend boss before they murder me?' It works by loading a team built in PadHerder and using the stats of your actual cards to determine your damage output."},

{"identifier":"#about-how",
"content":"How is it?"},

{"identifier":"#about-how-body",
"content":"PadSpike! is only possible thanks to the efforts of a number of people and puzzlers before us. In no particular order:"},

{"identifier":"#about-block ul li:nth-child(1)",
"content":"GungHo, for creating Puzzle and Dragons!"},

{"identifier":"#about-block ul li:nth-child(2)",
"content":"PadHerder and Freddie, for a wonderful site and an equally wonderful API!"},

{"identifier":"#about-block ul li:nth-child(3)",
"content":"Contributors to the Puzzle and Dragons wiki, who made several key formulas discoverable!"},

{"identifier":"#about-block ul li:nth-child(4)",
"content":"The Puzzle and Dragons subreddit and its posters, for several illuminating posts on the game!"},

{"identifier":"#about-notmine",
"content":"'Puzzle and Dragons' and all related images are property of GungHo Online Entertainment, Inc."}
]